Using the MiniMax Statistic • pathwayMultiomics
…
Adjusting the parameters for dependence across data platforms

We know that this assumption of independence may not hold under real data. We believe that the pathway activity for one layer of genomic data should be related to the activity for that pathway in another genomic data layer. However, we believe that the use of the Beta distribution itself will still be appropriate, but that the parameters need to be adjusted to account for the dependence between \(p_1, p_2, \ldots, p_G\).

In order to estimate these Beta distribution parameters, we recommend that you run your single-platform analyses twice: once with the real data, and once with a random permutation of phenotypes in that dataset (to simulate pathway conditions under \(H_0\)). Once this has been completed, pass the MiniMax statistics calculated from platform \(p\)-values for each pathway under \(H_0\) to the MiniMax_estBetaParams() function. This function has options to use either the Method of Moments or Maximum Likelihood to estimate the parameters of this Beta distribution. If you do not have access to the original data (such as in the case of a meta-analysis), then the only option we offer right now is to use the closed-form definitions of these parameters (\(\{\alpha = 2, \beta = G + 1 - 2\}\)).

Continuing the Alzheimer’s disease example

In the data set above, the MiniMax statistics and corresponding \(p\)-values are given below. Note that we assume that \(\{\alpha = 2, \beta = 2\}\) since the individual omics data p-values for DNA methylation and SNP were based on meta-analyses (we do not have access to the raw data to estimate the parameters as we would like). However, we verified in silico that these fixed values performed reasonably well. Therefore, we can add the statistic and its significance as follows:

###  The results table  ---
alzheimersMultiOmics_df
#> # A tibble: 2,833 × 8
#>    pathway          size  snpPval   snpFDR dnamPval dnamFDR rnaseqPval rnaseqFDR
#>    <chr>           <dbl>    <dbl>    <dbl>    <dbl>   <dbl>      <dbl>     <dbl>
#>  1 BIOCARTA_GRANU…    14 9.67e- 1 9.99e- 1  0.00241   0.359     0.919     0.936 
#>  2 BIOCARTA_LYM_P…    11 6.79e- 1 9.99e- 1  0.0156    0.538     0.0749    0.158 
#>  3 BIOCARTA_BLYMP…    12 3.31e-69 1.17e-66  0.138     0.858     0.999     0.999 
#>  4 BIOCARTA_CARM_…    24 3.30e- 1 9.99e- 1  0.0263    0.643     0.0287    0.0878
#>  5 BIOCARTA_LAIR_…    17 2.17e- 1 9.99e- 1  0.0463    0.718     0.630     0.700 
#>  6 BIOCARTA_VDR_P…    24 8.78e- 1 9.99e- 1  0.115     0.840     0.0350    0.0988
#>  7 BIOCARTA_MTA3_…    18 7.98e- 1 9.99e- 1  0.0494    0.721     0.105     0.197 
#>  8 BIOCARTA_GABA_…     9 3.71e- 1 9.99e- 1  1         1         0.0280    0.0865
#>  9 BIOCARTA_EGFR_…    11 6.77e- 1 9.99e- 1  0.0339    0.668     0.118     0.213 
#> 10 BIOCARTA_MONOC…    10 5.26e- 1 9.99e- 1  0.657     1         0.167     0.268 
#> # … with 2,823 more rows

###  Pathway Multi-Omics Significance with the MiniMax  ---
# We accept the default values of the Beta Distribution
adMiniMax_df <- 
    alzheimersMultiOmics_df %>% 
    # The MiniMax() function takes in the gene set name and the three p-value
    #   columns
    select(pathway, ends_with("Pval")) %>% 
    rename(
        SNP = snpPval, DNAm = dnamPval, RNAseq = rnaseqPval
    ) %>% 
    MiniMax()

adMiniMax_df
#> # A tibble: 2,833 × 7
#>    pathway                     SNP     DNAm   RNAseq MiniMax  MiniMaxP drivers  
#>    <chr>                     <dbl>    <dbl>    <dbl>   <dbl>     <dbl> <chr>    
#>  1 PID_PDGFRB_PATHWAY     6.99e- 1 0.000145  1.67e-4 1.67e-4   8.33e-8 DNAm and…
#>  2 WP_CHEMOKINE_SIGNALIN… 8.19e- 1 0.000317  1.94e-5 3.17e-4   3.02e-7 DNAm and…
#>  3 KEGG_HEMATOPOIETIC_CE… 3.67e-36 0.000340  7.61e-1 3.40e-4   3.48e-7 DNAm and…
#>  4 PID_TCR_PATHWAY        4.48e- 4 0.0275    4.90e-4 4.90e-4   7.20e-7 RNAseq a…
#>  5 WP_REGULATION_OF_TOLL… 3.76e- 5 0.0332    6.55e-4 6.55e-4   1.29e-6 RNAseq a…
#>  6 KEGG_CHEMOKINE_SIGNAL… 7.90e- 1 0.000672  2.98e-4 6.72e-4   1.35e-6 DNAm and…
#>  7 PID_KIT_PATHWAY        2.55e- 1 0.000684  1.10e-4 6.84e-4   1.40e-6 DNAm and…
#>  8 WP_KIT_RECEPTOR_SIGNA… 3.05e- 2 0.000368  1.41e-3 1.41e-3   5.94e-6 DNAm and…
#>  9 PID_CXCR4_PATHWAY      4.87e- 4 0.00150   7.29e-2 1.50e-3   6.76e-6 DNAm and…
#> 10 REACTOME_TCR_SIGNALING 6.06e-52 0.207     2.16e-3 2.16e-3   1.40e-5 RNAseq a…
#> # … with 2,823 more rows
…
