Find Gene Set / Pathway Significance across Multi-Omics Data — MiniMax • pathwayMultiomics
…
    Examples

 data("multiOmicsMedSignalResults_df")
 data("nullMiniMaxResults_df")

 MiniMax(
   pValues_df = multiOmicsMedSignalResults_df,
   pValuesNull_df = nullMiniMaxResults_df[, -5],
   method = "MLE",
   # Passed to the MiniMax_calculateDrivers() function
   drivers_char = c("cnv", "rnaSeq", "protein")
 )
#> # A tibble: 50 x 8
#>    terms     treated pVal_CNV pVal_RNAseq pVal_Prot MiniMax MiniMaxP drivers    
#>    <chr>     <lgl>      <dbl>       <dbl>     <dbl>   <dbl>    <dbl> <chr>      
#>  1 cluster05 TRUE       0.213       0.007     0.012   0.012  0.00105 protein an~
#>  2 cluster24 FALSE      0.03        0.016     0.669   0.03   0.00532 cnv and rn~
#>  3 cluster32 FALSE      0.03        0.037     0.661   0.037  0.00771 cnv and rn~
#>  4 cluster19 TRUE       0.18        0.004     0.044   0.044  0.0105  protein an~
#>  5 cluster40 FALSE      0.103       0.102     0.515   0.103  0.0459  cnv and rn~
#>  6 cluster26 FALSE      0.115       0.019     0.754   0.115  0.0554  cnv and rn~
#>  7 cluster49 FALSE      0.595       0.127     0.158   0.158  0.0947  protein an~
#>  8 cluster35 FALSE      0.034       0.201     0.688   0.201  0.141   cnv and rn~
#>  9 cluster45 FALSE      0.094       0.23      0.249   0.23   0.175   cnv and rn~
#> 10 cluster11 FALSE      0.247       0.159     0.473   0.247  0.197   cnv and rn~
#> # ... with 40 more rows
…
